%YAML 1.1
%TAG !u! tag:unity3d.com,2011:
--- !u!78 &1
TagManager:
  serializedVersion: 2
  tags: []
  layers:
  - Default
  - TransparentFX
  - Ignore Raycast
  - 
  - Water
  - UI
  - 
  - 
  - Virtual World
  - Floor Real World
  - Front Real World
  - Left Real World
  - Right Real World
  - 
  - 
  - 
  - 
  - 
  - 
  - 
  - 
  - 
  - 
  - 
  - 
  - 
  - 
  - CAVE Display 4
  - CAVE Display 3
  - CAVE Display 2
  - CAVE Display 1
  - CAVE
  m_SortingLayers:
  - name: Default
    uniqueID: 0
    locked: 0
